<?xml version="1.0" encoding="UTF-8" standalone="no"?>
<svg
   xmlns:dc="http://purl.org/dc/elements/1.1/"
   xmlns:cc="http://creativecommons.org/ns#"
   xmlns:rdf="http://www.w3.org/1999/02/22-rdf-syntax-ns#"
   xmlns:svg="http://www.w3.org/2000/svg"
   xmlns="http://www.w3.org/2000/svg"
   xmlns:sodipodi="http://sodipodi.sourceforge.net/DTD/sodipodi-0.dtd"
   xmlns:inkscape="http://www.inkscape.org/namespaces/inkscape"
   version="1.1"
   class="clearos-svg clearfoundation app-vendor-apeko app-paid app-category-server app-sub-category-file"
   viewBox="0 0 400 400"
   preserveAspectRatio="xMinYMin"
   id="svg4145"
   inkscape:version="0.91 r"
   sodipodi:docname="kopano_basic.svg">
  <metadata
     id="metadata4191">
    <rdf:RDF>
      <cc:Work
         rdf:about="">
        <dc:format>image/svg+xml</dc:format>
        <dc:type
           rdf:resource="http://purl.org/dc/dcmitype/StillImage" />
        <dc:title></dc:title>
      </cc:Work>
    </rdf:RDF>
  </metadata>
  <defs
     id="defs4189" />
  <sodipodi:namedview
     pagecolor="#ffffff"
     bordercolor="#666666"
     borderopacity="1"
     objecttolerance="10"
     gridtolerance="10"
     guidetolerance="10"
     inkscape:pageopacity="0"
     inkscape:pageshadow="2"
     inkscape:window-width="866"
     inkscape:window-height="480"
     id="namedview4187"
     showgrid="false"
     inkscape:zoom="0.59"
     inkscape:cx="200"
     inkscape:cy="200"
     inkscape:window-x="422"
     inkscape:window-y="159"
     inkscape:window-maximized="0"
     inkscape:current-layer="svg4145" />
  <g
     transform="matrix(1.2280411,0,0,1.2280411,17.338503,18.366944)"
     id="g3">
    <g
       id="g5">
      <g
         id="g7">
        <path
           fill="#686868"
           inkscape:connector-curvature="0"
           class="st0"
           d="M 143.6,297.3 19.4,173 C 12.9,166.5 9.3,157.8 9.3,148.6 c 0,-9.2 3.6,-17.9 10.1,-24.4 L 143.6,0 170.3,26.7 55.5,141.6 c -1.9,1.9 -2.9,4.4 -2.9,7 0,2.6 1,5.1 2.9,7 l 114.9,114.9 -26.8,26.8 z"
           id="path9" />
      </g>
    </g>
    <path
       fill="#686868"
       inkscape:connector-curvature="0"
       class="st1"
       d="m 288.2,148.6 c 0,-2.6 -1,-5.1 -2.9,-7 l -3.6,-3.6 c 0,0 0,0 0,0 l -71.5,-71.5 -2.4,2.4 c -10.3,10.6 -18.4,22.8 -24.1,36.4 -5.7,13.7 -8.7,28.2 -8.7,43.2 0,14.8 2.9,29.2 8.7,42.9 5.7,13.6 13.9,25.9 24.3,36.6 l 2.4,2.4 71.3,-71.3 0,0 3.6,-3.6 c 1.8,-1.7 2.9,-4.2 2.9,-6.9 z"
       id="path11" />
  </g>
</svg>
