<svg version="1.1" class="clearos-svg clearfoundation" viewBox="0 0 400 400" preserveAspectRatio="xMinYMin" xmlns="http://www.w3.org/2000/svg" xmlns:xlink= "http://www.w3.org/1999/xlink">
<path fill="#AA0707" d="M91.666,184.647"/>
<path fill="#AA0707" d="M123.245,247.805"/>
<path fill="#AA0707" d="M91.666,184.647"/>
<path fill="#AA0707" d="M123.245,247.805"/>
<g>
	<path fill="#686868" d="M200.452,58.877c26.251,0,47.523,21.272,47.523,47.516c0,26.251-21.271,47.524-47.523,47.524
		c-26.243,0-47.524-21.273-47.524-47.524C152.929,80.149,174.208,58.877,200.452,58.877z"/>
	<g>
		<path fill="#686868" d="M24.3,98.692c0-39.009,18.464-78.35,41.446-79.711L39.439,1.364C17.851,18.713,2.924,55.727,2.924,98.692
			c0,43.749,15.48,81.316,37.687,98.277l25.12-16.826C42.732,178.695,24.3,137.692,24.3,98.692z"/>
	</g>
	<path fill="#686868" d="M83.498,168.24l16.398-10.984c-14.681-5.523-25.863-32.599-25.863-58.563
		c0-25.658,10.905-51.473,25.333-57.195L82.39,30.156C68.112,43.689,58.387,69.134,58.387,98.692
		C58.402,128.987,68.635,154.985,83.498,168.24z"/>
	<path fill="#686868" d="M122.585,142.054l10.51-7.052v-0.862c-10.233,0-18.527-18.179-18.527-35.447
		c0-17.188,8.231-34.553,18.424-34.664l-11.571-7.748c-9.512,7.438-16.128,23.568-16.128,42.412
		C105.277,118.287,112.439,135.05,122.585,142.054z"/>
	<g>
		<path fill="#686868" d="M375.74,98.692c0-39.009-18.486-78.35-41.438-79.711l26.273-17.617c21.559,17.349,36.5,54.362,36.5,97.328
			c0,43.749-15.48,81.316-37.689,98.277l-25.119-16.826C357.254,178.695,375.74,137.692,375.74,98.692z"/>
	</g>
	<path fill="#686868" d="M316.543,168.24l-16.43-10.984c14.688-5.509,25.895-32.599,25.895-58.549
		c0-25.649-10.92-51.473-25.324-57.194l16.969-11.356c14.275,13.549,23.994,39.008,23.994,68.553
		C341.646,128.987,331.391,154.985,316.543,168.24z"/>
	<path fill="#686868" d="M277.447,142.054l-10.51-7.052v-0.862c10.227,0,18.52-18.179,18.52-35.447
		c0-17.188-8.246-34.553-18.439-34.664l11.604-7.748c9.527,7.423,16.146,23.568,16.146,42.396
		C294.764,118.287,287.578,135.05,277.447,142.054z"/>
	<path fill="#686868" d="M249.479,196.97c0.619-2.05,1.029-4.188,1.029-6.426c0-12.314-9.955-22.303-22.285-22.303h-55.597
		c-12.322,0-22.286,9.988-22.286,22.303c0,2.238,0.419,4.376,1.037,6.426H249.479z"/>
	<polygon fill="#686868" points="76.755,213.668 200.437,324.163 324.078,213.668 	"/>
	<polygon fill="#686868" points="200.437,344.251 169.042,316.201 76.755,398.636 324.078,398.636 231.83,316.201 	"/>
	<polygon fill="#686868" points="76.446,387.523 161.262,306.563 76.446,225.604 	"/>
	<polygon fill="#686868" points="323.254,387.523 238.414,306.563 323.254,225.604 	"/>
</g>
</svg>
