<svg version="1.1" class="clearos-svg clearfoundation" viewBox="0 0 400 400" preserveAspectRatio="xMinYMin" xmlns="http://www.w3.org/2000/svg" xmlns:xlink= "http://www.w3.org/1999/xlink">
<path fill="#AA0707" d="M91.666,184.647"/>
<path fill="#AA0707" d="M123.245,247.805"/>
<path fill="#AA0707" d="M91.666,184.647"/>
<path fill="#AA0707" d="M123.245,247.805"/>
<g>
	<path fill="#686868" d="M119.712,156.722c-42.844-5.011-20.965,25.331-20.965,25.331
		C101.318,163.157,119.712,156.722,119.712,156.722z"/>
	<path fill="#686868" d="M292.339,311.083l0.233-149.091l-149.812-0.243l42.332,42.164l8.547-7.122l-24.023-23.955l112.214,0.209
		l-0.185,111.627l-23.545-23.529l-78.169,65.224c0,0-30.819,25.926-34.749,28.842l11.336,11.528l104.347-87.043L292.339,311.083z"/>
	<path fill="#686868" d="M198.878,280.835l-34.498-41.144c-4.307,30.1-16.439,56.442-46.126,61.25
		c-3.311,0.537-13.315,0.957-17.655-8.881c-5.438,11.193-17.11,9.317-20.026,8.582c-4.961-1.207-9.335-2.951-13.23-5.162
		c-11.688-6.535-18.962-17.16-23.89-29.931v-0.034L31.32,275.704L2.285,246.829v137.285h138.006l-29.588-29.427L198.878,280.835z"/>
	<path fill="#686868" d="M84.276,283.898c2.388,0.588,11.881,2.146,16.307-6.971c3.535,7.979,11.672,7.643,14.378,7.207
		c24.761-3.975,34.598-26.412,37.856-51.717c3.453-26.555-4.566-48.6-30.34-48.616c-16.425-0.108-22.977,7.14-22.977,7.14
		s-6.352-7.793-22.448-6.888c-23.235,1.272-33.098,26.275-28.296,51.883C53.063,258.896,61.216,278.234,84.276,283.898z"/>
	<path fill="#686868" d="M284.145,15.886H79.508v97.952h12.837V30.733h187.391v117.441H384.14v220.438H228.959v15.503h168.756
		V144.129L284.145,15.886z M288.467,139.661V33.214l91.971,106.447H288.467z"/>
</g>
</svg>
