<svg version="1.1" class="clearos-svg clearfoundation" viewBox="0 0 400 400" preserveAspectRatio="xMinYMin" xmlns="http://www.w3.org/2000/svg" xmlns:xlink= "http://www.w3.org/1999/xlink">
<path fill="#AA0707" d="M91.666,184.647"/>
<path fill="#AA0707" d="M123.245,247.805"/>
<path fill="#AA0707" d="M91.666,184.647"/>
<path fill="#AA0707" d="M123.245,247.805"/>
<g>
	<path fill="#686868" d="M254.027,176.581H21.776c-9.528,0-17.261,7.733-17.261,17.245v52.508c0,9.512,7.732,17.229,17.261,17.229
		h232.251c9.543,0,17.244-7.749,17.244-17.229v-52.508C271.287,184.314,263.57,176.581,254.027,176.581z M236.072,243.121
		c-12.725,0-23.023-10.331-23.023-23.025c0-12.725,10.299-23.025,23.023-23.025c12.695,0,22.994,10.301,22.994,23.025
		C259.066,232.79,248.768,243.121,236.072,243.121z"/>
	<path fill="#686868" d="M254.027,279.406H21.776c-9.528,0-17.261,7.718-17.261,17.262v52.476c0,9.544,7.732,17.261,17.261,17.261
		h232.251c9.543,0,17.244-7.732,17.244-17.261v-52.476C271.287,287.124,263.57,279.406,254.027,279.406z M236.072,345.899
		c-12.725,0-23.023-10.269-23.023-22.994c0-12.725,10.299-23.024,23.023-23.024c12.695,0,22.994,10.3,22.994,23.024
		C259.066,335.631,248.768,345.899,236.072,345.899z"/>
	<g>
		<path fill="#686868" d="M249.979,45.471h-28.016l-2.82,18.836c1.67-0.221,3.275-0.441,5.984-0.441
			c5.654,0,11.277,1.245,15.797,3.953c5.764,3.276,10.504,9.591,10.504,18.852c0,14.363-11.402,25.073-27.34,25.073
			c-8,0-14.789-2.252-18.285-4.504l2.473-7.56c3.057,1.795,9.041,4.063,15.719,4.063c9.354,0,17.387-6.111,17.387-15.938
			c-0.127-9.481-6.441-16.253-21.15-16.253c-4.158,0-7.434,0.441-10.158,0.788l4.74-35.246h35.15v8.378H249.979z"/>
		<path fill="#686868" d="M338.158,107.144c-4.41,1.575-13.119,4.158-23.387,4.158c-11.514,0-21.01-2.93-28.459-10.048
			c-6.551-6.3-10.615-16.474-10.615-28.349c0.111-22.71,15.703-39.31,41.215-39.31c8.82,0,15.719,1.921,18.979,3.497l-2.363,8.032
			c-4.063-1.795-9.15-3.276-16.836-3.276c-18.52,0-30.6,11.528-30.6,30.616c0,19.309,11.639,30.71,29.355,30.71
			c6.441,0,10.852-0.882,13.104-2.016v-22.71h-15.465v-7.906h25.088v36.601H338.158z"/>
		<path fill="#686868" d="M347.482,35.391c4.299-0.882,11.07-1.575,17.938-1.575c9.828,0,16.158,1.701,20.898,5.543
			c3.953,2.929,6.348,7.434,6.348,13.418c0,7.37-4.867,13.78-12.883,16.725v0.236c7.213,1.811,15.701,7.796,15.701,19.104
			c0,6.536-2.598,11.497-6.426,15.229c-5.307,4.851-13.891,7.103-26.332,7.103c-6.771,0-11.953-0.441-15.229-0.898V35.391H347.482z
			 M357.293,66.574h8.945c10.379,0,16.475-5.417,16.475-12.772c0-8.914-6.789-12.426-16.727-12.426c-4.52,0-7.102,0.346-8.693,0.693
			V66.574z M357.293,103.081c1.922,0.331,4.74,0.441,8.27,0.441c10.158,0,19.527-3.717,19.527-14.788
			c0-10.41-8.93-14.694-19.67-14.694h-8.127V103.081z"/>
	</g>
	<path fill="#686868" d="M253.508,130.673c-4.236,4.961-10.426,8.158-17.436,8.158c-7.039,0-13.244-3.197-17.465-8.158h-17.529
		c-8.897,0-16.126-7.245-16.126-16.127V72.307H21.776c-9.528,0-17.261,7.732-17.261,17.261v52.476
		c0,9.544,7.732,17.261,17.261,17.261h232.251c9.543,0,17.244-7.717,17.244-17.261v-11.371H253.508z"/>
</g>
</svg>
