<svg version="1.1" class="clearos-svg clearfoundation" viewBox="0 0 400 400" preserveAspectRatio="xMinYMin" xmlns="http://www.w3.org/2000/svg" xmlns:xlink= "http://www.w3.org/1999/xlink">
<path style="fill:#AA0707;" d="M91.666,184.647"/>
<path style="fill:#AA0707;" d="M123.245,247.805"/>
<path style="fill:#AA0707;" d="M91.666,184.647"/>
<path style="fill:#AA0707;" d="M123.245,247.805"/>
<g>
	<path style="fill:#686868;" d="M234.4,288.59H13.032c-5.72,0-10.359,3.656-10.359,8.188v24.939c0,4.533,4.64,8.191,10.359,8.191
		H234.4c5.723,0,10.36-3.658,10.36-8.191v-24.92C244.762,292.273,240.122,288.59,234.4,288.59z"/>
	<path style="fill:#686868;" d="M124.413,85.277c40.106,0,72.633,34.456,72.868,77.072c7.926-0.129,12.738-0.255,12.738-0.451
		c0.015-50.705-38.626-91.807-86.294-91.807c-47.673,0-86.309,41.108-86.309,91.807c0,0.196,5.376,0.337,14.123,0.467
		C51.782,119.749,84.293,85.277,124.413,85.277z"/>
	<path style="fill:#686868;" d="M13.032,216.133H234.4v-0.021c5.723,0,10.36-3.656,10.36-8.209v-18.072h-0.003v-7.433
		c0.001-4.563-4.638-8.21-10.357-8.21v-0.029H13.032c-5.72,0-10.359,3.658-10.359,8.2v0.643v24.293v0.645
		C2.673,212.475,7.313,216.133,13.032,216.133z"/>
	<path style="fill:#686868;" d="M13.032,273.295h45.05c-0.113-0.785-0.191-1.578-0.191-2.391v-37.184c0-0.813,0.079-1.613,0.193-2.4
		H13.032c-5.72,0-10.359,3.658-10.359,8.199v0.645v24.293v0.646C2.673,269.637,7.313,273.295,13.032,273.295z"/>
	<path style="fill:#686868;" d="M397.324,244.584v-10.801c0.002-6.635-6.492-11.936-14.501-11.936v-0.041H83.412
		c-8.007,0-14.502,5.316-14.502,11.914v0.939v35.305v0.939c0,6.588,6.496,11.902,14.502,11.902h299.411v-0.027
		c8.011,0,14.504-5.314,14.504-11.932v-26.266L397.324,244.584L397.324,244.584z M386.438,266.594c0,5.1-5.005,9.195-11.177,9.195
		v0.02H89.808c-6.168,0-11.174-4.098-11.174-9.174v-0.723v-27.203v-0.723c0-5.086,5.004-9.182,11.174-9.182h285.453v0.031
		c6.171,0,11.176,4.084,11.173,9.193v8.322h0.004V266.594z"/>
	<polygon style="fill:#686868;" points="111.783,252.301 117.104,245.301 113.743,243.396 110.327,251.236 110.215,251.236 
		106.743,243.453 103.327,245.414 108.591,252.246 108.591,252.355 100.358,251.293 100.358,255.104 108.647,254.037 
		108.647,254.146 103.327,260.98 106.519,262.998 110.159,255.104 110.271,255.104 113.631,262.939 117.159,260.926 
		111.783,254.205 111.783,254.094 120.239,255.104 120.239,251.293 111.783,252.414 	"/>
	<polygon style="fill:#686868;" points="158.402,252.301 163.723,245.301 160.362,243.396 156.946,251.236 156.834,251.236 
		153.362,243.453 149.946,245.414 155.21,252.246 155.21,252.355 146.978,251.293 146.978,255.104 155.267,254.037 155.267,254.146 
		149.946,260.98 153.138,262.998 156.779,255.104 156.891,255.104 160.25,262.939 163.778,260.926 158.402,254.205 158.402,254.094 
		166.858,255.104 166.858,251.293 158.402,252.414 	"/>
	<polygon style="fill:#686868;" points="205.021,252.301 210.342,245.301 206.982,243.396 203.566,251.236 203.453,251.236 
		199.98,243.453 196.566,245.414 201.83,252.246 201.83,252.355 193.598,251.293 193.598,255.104 201.887,254.037 201.887,254.146 
		196.566,260.98 199.758,262.998 203.398,255.104 203.51,255.104 206.869,262.939 210.398,260.926 205.021,254.205 205.021,254.094 
		213.479,255.104 213.479,251.293 205.021,252.414 	"/>
	<polygon style="fill:#686868;" points="251.641,252.301 256.961,245.301 253.602,243.396 250.186,251.236 250.073,251.236 
		246.602,243.453 243.186,245.414 248.449,252.246 248.449,252.355 240.216,251.293 240.216,255.104 248.506,254.037 
		248.506,254.146 243.186,260.98 246.378,262.998 250.018,255.104 250.128,255.104 253.488,262.939 257.018,260.926 
		251.641,254.205 251.641,254.094 260.098,255.104 260.098,251.293 251.641,252.414 	"/>
	<polygon style="fill:#686868;" points="298.26,252.301 303.58,245.301 300.221,243.396 296.805,251.236 296.691,251.236 
		293.221,243.453 289.805,245.414 295.068,252.246 295.068,252.355 286.835,251.293 286.835,255.104 295.125,254.037 
		295.125,254.146 289.805,260.98 292.997,262.998 296.637,255.104 296.749,255.104 300.107,262.939 303.639,260.926 298.26,254.205 
		298.26,254.094 306.717,255.104 306.717,251.293 298.26,252.414 	"/>
	<polygon style="fill:#686868;" points="344.88,252.301 350.2,245.301 346.841,243.396 343.425,251.236 343.313,251.236 
		339.841,243.453 336.425,245.414 341.688,252.246 341.688,252.355 333.456,251.293 333.456,255.104 341.745,254.037 
		341.745,254.146 336.425,260.98 339.617,262.998 343.256,255.104 343.368,255.104 346.729,262.939 350.257,260.926 344.88,254.205 
		344.88,254.094 353.336,255.104 353.336,251.293 344.88,252.414 	"/>
</g>
</svg>
