<svg version="1.1" class="clearos-svg clearfoundation app-vendor-burgess app-paid app-category-network app-sub-category-vpn" viewBox="0 0 400 400" preserveAspectRatio="xMinYMin" xmlns="http://www.w3.org/2000/svg" xmlns:xlink= "http://www.w3.org/1999/xlink">
<path fill="#AA0707" d="M91.666,184.647"/>
<path fill="#AA0707" d="M123.245,247.805"/>
<path fill="#AA0707" d="M91.666,184.647"/>
<path fill="#AA0707" d="M123.245,247.805"/>
<g>
	<path fill="#686868" d="M104.619,90.785c-0.474-14.421-1.944-45.772-41.885-55.44c0,0-51.563-6.768-59.941,46.729
		c0,0-2.417,46.678,46.819,54.121c-5.096,9.597-10.806,21.31-5.589,32.609c0,0-1.833-9.035,0.967-17.464
		c1.531-4.542,4.089-9.839,6.496-14.794c0,0,0,0,0.021,0l0.03-0.081c3.193-6.536,6.123-12.377,6.042-14.481
		c-0.11-3.133-0.443-9.92-9.083-12.045c0,0-11.179-1.44-13.012,10.172c0,0,0,0.664,0.081,1.459
		c-11.299-5.438-23.465-16.395-22.891-39.145c0,0,5.156-36.315,41.25-38.027c0,0,38.239-0.846,41.25,42.982
		c3.011,43.828-92.4,134.275-53.063,219.352c0,0-8.52-41.834,4.512-80.565C62.936,177.595,105.191,107.984,104.619,90.785z
		 M53.82,127.332c0.161-0.211,0.313-0.453,0.453-0.705c-0.231,0.534-0.453,1.098-0.725,1.672L53.82,127.332z"/>
	<path fill="#686868" d="M344.375,277.688c-148.225-120.538-255.859,0-255.859,0l16.456,0.646
		c113.76-94.755,218.778-3.224,235.536,10.957c16.758,14.159,36.094,23.769,36.094,23.769
		c-38.025,50.998-85.078,37.383-85.078,37.383l-3.223,10.916c60.626,20.625,108.926-54.744,108.926-54.744
		C375.313,302.825,344.375,277.688,344.375,277.688z"/>
</g>
</svg>
