<svg version="1.1" class="clearos-svg clearfoundation app-vendor-burgess app-free app-category-server app-sub-category-file" viewBox="0 0 400 400" preserveAspectRatio="xMinYMin" xmlns="http://www.w3.org/2000/svg" xmlns:xlink= "http://www.w3.org/1999/xlink">
<path style="fill:#AA0707;" d="M91.666,184.647"/>
<path style="fill:#AA0707;" d="M123.245,247.805"/>
<path style="fill:#AA0707;" d="M91.666,184.647"/>
<path style="fill:#AA0707;" d="M123.245,247.805"/>
<g>
	<polygon style="fill:#686868;" points="248.568,292.546 266.21,230.799 247.271,239.36 232.335,215.29 232.162,215.373 
		185.026,237.968 198.498,262.45 179.04,272.567 	"/>
	<path style="fill:#686868;" d="M205.091,98.817l-0.612,0.267c-0.299-2.958-0.439-5.478-0.28-6.92
		c-3.579-27.071-10.377-45.078-15.574-55.562c-5.71-11.52-10.728-16.616-11.097-16.982l-4.201-1.655
		c-0.503,0.148-4.406,1.3-9.891,2.942c-13.955,4.388-38.15,12.035-41.99,13.497c-5.448,2.076-2.595,7.785-2.595,7.785
		c-0.095,0.037-0.19,0.076-0.285,0.115c0.001,0.002,0.003,0.008,0.004,0.01c8.107,1.927,16.644,13.381,25.373,34.045
		c6.992,16.551,14.132,39.022,21.223,66.793c11.665,45.683,19.383,90.995,19.962,94.424l46.707-22.389
		c-2.729-2.85-5.334-7.338-7.684-13.09l-0.422-0.679l-0.373-1.342c-3.002-7.909-5.539-17.916-7.313-29.194
		c-0.404-2.566-0.811-5.16-1.215-7.764l-7.251-43.1c0,0-0.05-0.283-0.138-0.779l0.647-0.305
		C206.706,109.725,205.633,102.487,205.091,98.817z"/>
	<path style="fill:#686868;" d="M232.206,215.124l0.071,0.075l-7.078-11.411C227.371,208.735,229.738,212.608,232.206,215.124z"/>
	<path style="fill:#686868;" d="M177.721,19.375c0.052,0.05,5.245,5.119,11.171,17.068c5.156,10.396,11.885,28.169,15.5,54.817
		c0.071-0.181,0.159-0.309,0.268-0.362c61.486-30.744,61.552-41.705,61.552-41.705c4.411-32.429-16.862-42.548-16.862-42.548
		c-51.855,3.304-71.581,12.086-72.356,12.441L177.721,19.375z"/>
	<path style="fill:#686868;" d="M365.82,252.638l-98.316-151.959c-7.695-14.199-25.445-19.473-39.646-11.777l-22.473,9.789
		c0.536,3.627,1.61,10.871,2.996,20.106l13.292-6.259c11.126-5.967,23.427-3.342,29.396,7.786l81.001,126.127
		c5.966,11.126,0.228,21.868-10.897,27.837l-140.244,74.07c-11.126,5.968-24.983,1.008-30.95-10.119L87.477,200.221
		c-5.967-11.127-5.676-21.093,5.451-27.06l59.132-27.845l8.561,24.254l-16.604,42.549l21.793-9.081l19.001,34.536
		c-0.631-3.743-8.332-48.86-19.948-94.348c-7.087-27.756-14.222-50.213-21.207-66.748c-8.715-20.629-17.203-32.028-25.229-33.881
		l-0.071-0.017l-0.033-0.065c-0.005-0.01-0.023-0.047-0.046-0.097C80.128,57.807,47.765,88.625,47.765,88.625l0.259,3.373
		c-14.788,10.118-17.382,16.344-17.382,16.344l12.972,25.166c4.151,1.297,22.312-3.892,22.312-3.892l3.892,4.67
		c26.462,0.519,72.124-17.642,72.124-17.642l2.96,8.385l-78.447,34.166c-14.2,7.697-19.473,25.445-11.777,39.646l79.745,179.201
		c7.696,14.199,25.445,19.472,39.646,11.775l179.977-97.537C368.242,284.586,373.515,266.837,365.82,252.638z"/>
	<path style="fill:#686868;" d="M218.977,184.34c0.957,4.076,2.018,7.883,3.162,11.367L218.977,184.34z"/>
	<path style="fill:#686868;" d="M218.557,182.514l10.035-3.604l-11.43-3.303C217.596,177.979,218.059,180.285,218.557,182.514z"/>
</g>
</svg>
