<svg version="1.1" class="clearos-svg clearfoundation app-vendor-clearcenter app-paid app-category-server app-sub-category-communication-and-collaboration app-no-rpm" viewBox="0 0 400 400" preserveAspectRatio="xMinYMin" xmlns="http://www.w3.org/2000/svg" xmlns:xlink= "http://www.w3.org/1999/xlink">
<path style="fill:#AA0707;" d="M91.666,184.647"/>
<path style="fill:#AA0707;" d="M123.245,247.805"/>
<path style="fill:#AA0707;" d="M91.666,184.647"/>
<path style="fill:#AA0707;" d="M123.245,247.805"/>
<g>
	<path style="fill:#686868;" d="M113.748,160.74c-1.81-2.765-3.44-5.263-4.917-7.524c-13.441-20.587-14.246-21.819-21.135-27.069
		l-0.252-0.192l-0.307-0.074c-2.701-0.649-10.695-0.965-24.441-0.965c-22.899,0-53.752,0.915-54.017,0.924
		c-2.963,0-5.373,2.424-5.373,5.404V244.73c0,2.972,2.41,5.39,5.373,5.39h99.957c2.963,0,5.373-2.418,5.373-5.39l-0.017-83.617
		L113.748,160.74z M108.637,247.12H47.54c4.699-5.496,3.124-11.349,3.124-11.349c-0.741-13.834-20.608-21.233-20.608-21.233
		c-14.324,3.306-13.349,12.024-13.112,15.896c0.236,3.873,4.171,8.28,5.385,10.295c0.524,0.839,3.223,3.804,6.78,6.392H18.419
		c-1.585-2.146-3.998-6.547-4.641-14.07c-0.646-7.577-4.758-10.253-7.472-11.197v-5.426c1.484,2.646,3.414,3.117,4.497,3.117
		c2.094,0,4.676-1.008,7.099-3.416c2.426-2.426,3.4-10.674,3.4-10.674v-25.226c-8.607,6.228-12.887,11.088-14.996,14.562v-63.547
		c0-1.326,1.064-2.404,2.418-2.405c0.309-0.009,31.116-0.923,53.972-0.923c11.178,0,17.308,0.218,20.632,0.483
		c-6.215,2.996-10.77,11.25-10.77,11.25s1.165,18.26,2.125,19.74c0.96,1.449,7.035-1.228,13.08-6.312
		c5.507-4.608,8.488-6.086,10.253-10.843c0.637,0.947,1.32,1.973,2.068,3.106l-15.028,17.764l12.42,16.97l13.517-16.891v81.548
		l0.003,0.264C110.869,246.206,109.879,247.12,108.637,247.12z"/>
	<path style="fill:#686868;" d="M30.216,173.616c0,0-3.4,9.382-3.715,18.937c-0.314,9.532,0,18.254,0,18.254h14.858l-0.001-0.015
		c0,0,13.428-13.099,13.603-20.676C55.117,182.527,30.216,173.616,30.216,173.616z"/>
	<path style="fill:#686868;" d="M52.188,177.822c7.619-0.661,6.8-6.975,6.974-9.712c0.157-2.754-5.998-15.049-5.998-15.049
		l-18.765,16.812C34.4,169.889,44.587,178.467,52.188,177.822z"/>
	<path style="fill:#686868;" d="M77.754,166.188c-4.376-0.346-15.363-1.448-14.734,16.481c0.661,17.937,14.734,25.696,14.734,25.696
		s14.701-16.158,14.197-23.604C91.494,177.333,82.111,166.504,77.754,166.188z"/>
	<path style="fill:#686868;" d="M71.771,150.164c-0.188-3.243-2.771-7.115-4.69-7.115c-1.951,0-7.775,3.715-7.935,8.91
		c-0.157,5.179,6.785,14.104,6.785,14.104C69.33,163.812,71.928,153.407,71.771,150.164z"/>
	<path style="fill:#686868;" d="M59.146,194.555c-11.396,15.516-12.624,19.856-12.373,22.063c0.252,2.172,9.445,17.942,9.445,17.942
		c6.548-1.699,18.197-23.783,18.197-23.783C66.672,208.588,59.146,194.555,59.146,194.555z"/>
	<polygon style="fill:#686868;" points="147.141,240.604 185.723,184.055 185.723,178.561 138.529,178.561 138.529,186.133 
		174.012,186.133 174.012,186.432 135.209,243.172 135.208,248.477 186.258,248.477 186.258,240.904 147.141,240.904 	"/>
	<path style="fill:#686868;" d="M232.301,217.62c0-10.06-3.746-20.526-19.094-20.526c-6.313,0-12.355,1.766-16.48,4.454l2.047,6.015
		c3.543-2.252,8.422-3.697,13.082-3.697c10.277,0,11.41,7.461,11.41,11.615v1.01c-19.393-0.11-30.175,6.531-30.175,18.685
		c0,7.274,5.181,14.437,15.349,14.437c7.146,0,12.563-3.524,15.361-7.463h0.314l0.725,6.313v-0.019h8.313
		c-0.646-3.4-0.852-7.65-0.852-12.027V217.62z M223.482,231.557c0,0.943-0.205,1.967-0.504,2.911
		c-1.449,4.25-5.602,8.405-12.15,8.405c-4.66,0-8.609-2.803-8.609-8.721c0-9.727,11.318-11.521,21.264-11.286V231.557z"/>
	<path style="fill:#686868;" d="M255.361,208.116h-0.426l-0.313-9.854h-7.998c0.313,4.659,0.439,9.76,0.439,15.678h-0.004v34.522
		h9.021V221.7c0-1.56,0.189-3.007,0.395-4.25c1.258-6.849,5.84-11.729,12.262-11.729c1.246,0,2.174,0.096,3.104,0.299v-8.594
		c-0.834-0.205-1.574-0.33-2.582-0.33C263.123,197.096,257.645,201.361,255.361,208.116z"/>
	<path style="fill:#686868;" d="M315.713,217.62L315.713,217.62c0-10.06-3.748-20.526-19.094-20.526
		c-6.346,0-12.357,1.766-16.498,4.454l2.094,6.015c3.512-2.252,8.391-3.697,13.082-3.697c10.264,0,11.396,7.461,11.396,11.615v1.01
		c-19.395-0.11-30.191,6.531-30.191,18.685c0,7.274,5.193,14.437,15.361,14.437c7.148,0,12.547-3.524,15.35-7.463h0.33l0.727,6.313
		v-0.019h8.277c-0.629-3.4-0.834-7.65-0.834-12.027V217.62z M306.398,234.469c-1.467,4.25-5.623,8.405-12.139,8.405
		c-4.676,0-8.627-2.804-8.627-8.722c0-9.728,11.316-11.521,21.281-11.286l0.002,8.69
		C306.916,232.501,306.729,233.523,306.398,234.469z"/>
	<path style="fill:#686868;" d="M350.154,181.048c2.613,0,4.455,0.503,5.809,1.134l1.23-7.053c-1.746-0.725-4.566-1.447-7.762-1.447
		c-4.232,0-8.813,1.354-12.229,4.659c-4.25,4.062-5.824,10.482-5.824,17.536v2.385h-7.053v6.957h7.053v43.242l-0.002,0.016h9.033
		v-43.258h12.152v-6.957H340.41v-2.685C340.41,187.896,342.395,181.048,350.154,181.048z"/>
	<path style="fill:#686868;" d="M396.014,236.415V217.62c0-10.06-3.746-20.526-19.107-20.526c-6.297,0-12.313,1.766-16.469,4.454
		l2.078,6.015c3.496-2.252,8.391-3.697,13.066-3.697c10.262,0,11.395,7.461,11.395,11.615v1.01
		c-19.395-0.11-30.178,6.531-30.178,18.685c0,7.274,5.18,14.437,15.363,14.437c7.131,0,12.547-3.524,15.348-7.463h0.314l0.709,6.313
		l0,0v-0.019h8.297C396.234,245.042,396.014,240.792,396.014,236.415z M387.195,231.557c0,0.944-0.205,1.969-0.504,2.912
		c-1.465,4.25-5.604,8.405-12.152,8.405c-4.658,0-8.594-2.804-8.594-8.722c0-9.728,11.303-11.521,21.25-11.286V231.557z"/>
	<polygon style="fill:#686868;" points="3.17,259.294 3.629,261.104 6.679,259.456 6.731,259.456 6.731,274.788 9.026,274.788 
		9.026,257.243 7.003,257.243 	"/>
	<path style="fill:#686868;" d="M21.285,256.945c-3.563,0-6.102,3.238-6.102,9.123c0.055,5.806,2.376,9.017,5.804,9.017
		c3.888,0,6.102-3.293,6.102-9.258C27.089,260.239,24.982,256.945,21.285,256.945z M21.123,273.249c-2.159,0-3.563-2.59-3.563-7.151
		c0-4.777,1.512-7.314,3.59-7.314c2.456,0,3.563,2.834,3.563,7.152C24.713,270.415,23.553,273.249,21.123,273.249z"/>
	<path style="fill:#686868;" d="M35.136,256.945c-3.563,0-6.101,3.238-6.101,9.123c0.055,5.806,2.376,9.017,5.804,9.017
		c3.887,0,6.101-3.293,6.101-9.258C40.938,260.239,38.834,256.945,35.136,256.945z M34.974,273.249c-2.159,0-3.563-2.59-3.563-7.151
		c0-4.777,1.512-7.314,3.59-7.314c2.456,0,3.563,2.834,3.563,7.152C38.563,270.415,37.402,273.249,34.974,273.249z"/>
	<path style="fill:#686868;" d="M60.702,267.366c0,4.021-1.729,5.803-4.428,5.803c-2.429,0-4.236-1.728-4.236-5.803v-10.771h-2.376
		v10.717c0,5.641,2.808,7.772,6.531,7.772c3.941,0,6.885-2.293,6.885-7.881v-10.608h-2.376V267.366z"/>
	<path style="fill:#686868;" d="M71.126,267.204c-1.7-0.647-2.482-1.136-2.482-2.215c0-0.972,0.782-1.781,2.187-1.781
		c1.215,0,2.159,0.433,2.673,0.756l0.594-1.728c-0.729-0.432-1.89-0.811-3.212-0.811c-2.808,0-4.508,1.729-4.508,3.834
		c0,1.564,1.105,2.861,3.455,3.697c1.754,0.648,2.429,1.27,2.429,2.402c0,1.08-0.81,1.943-2.537,1.943
		c-1.188,0-2.43-0.486-3.131-0.945l-0.594,1.809c0.918,0.541,2.239,0.891,3.671,0.891c3.104,0,4.886-1.619,4.886-3.912
		C74.555,269.2,73.394,268.066,71.126,267.204z"/>
	<path style="fill:#686868;" d="M82.79,261.427c-3.807,0-6.127,3.105-6.127,7.046s2.401,6.586,6.424,6.586
		c2.078,0,3.509-0.433,4.346-0.81l-0.404-1.701c-0.892,0.38-1.917,0.677-3.616,0.677c-2.376,0-4.428-1.324-4.481-4.535h9.178
		c0.027-0.244,0.081-0.621,0.081-1.107C88.188,265.18,87.055,261.427,82.79,261.427z M78.957,266.986
		c0.188-1.646,1.242-3.858,3.645-3.858c2.672,0,3.319,2.349,3.293,3.858H78.957z"/>
	<path style="fill:#686868;" d="M93.293,264.288h-0.107l-0.081-2.563h-2.079c0.081,1.215,0.108,2.536,0.108,4.075v8.988h2.349
		v-6.963c0-0.406,0.055-0.783,0.107-1.107c0.324-1.78,1.512-3.051,3.186-3.051c0.324,0,0.566,0.026,0.811,0.082v-2.24
		c-0.216-0.055-0.404-0.082-0.675-0.082C95.316,261.427,93.887,262.534,93.293,264.288z"/>
	<path style="fill:#686868;" d="M104.174,267.204c-1.7-0.647-2.483-1.136-2.483-2.215c0-0.972,0.783-1.781,2.188-1.781
		c1.215,0,2.159,0.433,2.672,0.756l0.594-1.728c-0.729-0.432-1.889-0.811-3.212-0.811c-2.807,0-4.508,1.729-4.508,3.834
		c0,1.564,1.105,2.861,3.455,3.697c1.755,0.648,2.43,1.27,2.43,2.402c0,1.08-0.81,1.943-2.537,1.943
		c-1.188,0-2.43-0.486-3.132-0.945l-0.594,1.809c0.918,0.541,2.24,0.891,3.671,0.891c3.104,0,4.886-1.619,4.886-3.912
		C107.602,269.2,106.44,268.066,104.174,267.204z"/>
</g>
</svg>
